Model load
…
df_load_raw$nematode_count[which(df_load_raw$nematode_count == ">100")] <- "100"
df_load_raw$nematode_count <- as.numeric(df_load_raw$nematode_count)

df_load_rename <- df_load_raw %>% 
  select(id, spp, nematode_count, island) %>% 
  rename(species = spp)

# correct species names
df_load <- df_load_rename %>%
  left_join(species_names_df |> select(species, species_code),
            by = "species")
df_load

# A tibble: 3,784 × 5
   id      species  nematode_count island     species_code
   <chr>   <chr>             <dbl> <chr>             <dbl>
 1 sc03-40 hirsutus              1 Santa_Cruz           15
 2 sc03-40 hirsutus              1 Santa_Cruz           15
 3 sc03-40 hirsutus              1 Santa_Cruz           15
 4 sc03-40 hirsutus              0 Santa_Cruz           15
 5 sc03-40 hirsutus              0 Santa_Cruz           15
 6 sc03-40 hirsutus              0 Santa_Cruz           15
 7 sc03-40 hirsutus              0 Santa_Cruz           15
 8 sc03-40 hirsutus              0 Santa_Cruz           15
 9 sc03-35 hirsutus              0 Santa_Cruz           15
10 sc03-35 hirsutus              0 Santa_Cruz           15
# ℹ 3,774 more rows
…
ℹ Use `spec()` to retrieve the full column specification for this data.
ℹ Specify the column types or set `show_col_types = FALSE` to quiet this message.

df_bright <- df_bright_raw %>% 
  select(location, spp, brightness, microhab) %>% 
  rename(id = location,
         species = spp) %>%
  left_join(species_names_df |> select(species, species_code), by = "species")

df_bright

# A tibble: 1,555 × 5
   id      species     brightness microhab    species_code
   <chr>   <chr>            <dbl> <chr>              <dbl>
 1 SL14-01 amastroides      1635. terrestrial            3
 2 SL14-01 amastroides       487. terrestrial            3
 3 SL14-01 amastroides      2673. terrestrial            3
 4 SL14-01 amastroides      2533. terrestrial            3
 5 SL14-01 amastroides      1050. terrestrial            3
 6 SL14-01 amastroides       646. terrestrial            3
 7 SL14-01 amastroides      1503. terrestrial            3
 8 SL14-01 amastroides       496. terrestrial            3
 9 SL14-01 amastroides      1377. terrestrial            3
10 SL14-01 amastroides       903. terrestrial            3
# ℹ 1,545 more rows

In this dataset it seems that the MAJORITY of observations don’t have a species name. Is that correct??

df_bright |> count(species_code) |> 
  arrange(desc(n))

# A tibble: 26 × 2
   species_code     n
          <dbl> <int>
 1           NA   529
 2           47   142
 3           43   113
 4           45    89
 5            2    81
 6           24    61
 7           29    54
 8           11    53
 9           21    48
10           44    44
# ℹ 16 more rows
…
Rows: 501
Columns: 4
$ Sample     <chr> "AL05_05_02_01", "AL05_05_02_03", "AL05_11_01_05", "AL15_01…
$ species    <chr> "pallidus", "pallidus", "sp. nov. Alcedo 1", "hemaerodes", …
$ habitat    <chr> "Semi-Arboreal", "Semi-Arboreal", NA, "Semi-Arboreal", "Sem…
$ vegetation <chr> "Humid", "Humid", NA, "Humid", "Humid", "Humid", "Humid", N…

warning!

There should be no species in this list that are not found in the master species list! However we are missing the following in the species list

df_rad_rename |> 
  filter(is.na(species_code))

# A tibble: 123 × 5
   Sample        species           habitat     vegetation species_code
   <chr>         <chr>             <chr>       <chr>             <dbl>
 1 AL05_05_02_01 pallidus          arboreal    Humid                NA
 2 AL05_05_02_03 pallidus          arboreal    Humid                NA
 3 AL15_01_01_07 hemaerodes        arboreal    Humid                NA
 4 AL15_01_01_08 hemaerodes        arboreal    Humid                NA
 5 AL15_02_01_01 sp. nov. Alcedo 1 terrestrial Humid                NA
 6 AL15_02_01_09 sp. nov. Alcedo 1 terrestrial Humid                NA
 7 DA15_03_01_01 sp. nov. Darwin 2 arboreal    Humid                NA
 8 DA15_04_01_01 sp. nov. Darwin 2 arboreal    Humid                NA
 9 DA15_04_01_02 sp. nov. Darwin 2 arboreal    Humid                NA
10 DA15_05_01_02 sp. nov. Darwin 2 arboreal    Humid                NA
# ℹ 113 more rows
…
df_rad_rename_noNA <- df_rad_rename |> 
  drop_na(species_code)

df_hab <-  bind_rows(df_bright_noNA |> 
                       select(microhab, species_code),
                     df_rad_rename_noNA |> 
                       select(microhab = habitat, species_code)
) |> # add habitat data from brightness dataset 
  count(microhab, species_code) |> 
  pivot_wider(values_from = n, names_from = microhab, values_fill = 0) |> 
  mutate(total_hab = terrestrial + arboreal)

df_hab

# A tibble: 38 × 4
   species_code arboreal terrestrial total_hab
          <dbl>    <int>       <int>     <int>
 1            2       86           8        94
 2            4        6           0         6
 3            5        2           0         2
 4           12       32           0        32
 5           13        4           0         4
 6           16        3           9        12
 7           19        4           0         4
 8           21       60           0        60
 9           22        4          20        24
10           28        4          28        32
# ℹ 28 more rows
…
df_veg

# A tibble: 34 × 4
   species_code  arid humid total_veg
          <dbl> <int> <int>     <int>
 1            1     4     0         4
 2            2     0    13        13
 3            3     4     0         4
 4            4     6     0         6
 5            5     0     2         2
 6            6     0     3         3
 7            7     4     0         4
 8            8     1     3         4
 9           11     2     0         2
10           13     0     1         1
# ℹ 24 more rows
…
